
build/test.elf:     formato de ficheiro elf32-littleriscv


Desmontagem da secção .text:

00000100 <test_init>:
 100:	00f00093          	addi	x1,x0,15
 104:	00f08113          	addi	x2,x1,15
 108:	00f10193          	addi	x3,x2,15
 10c:	00f18213          	addi	x4,x3,15
 110:	00f20293          	addi	x5,x4,15 # f <__TEST_START__+0xf>
 114:	00f28313          	addi	x6,x5,15
 118:	00f30393          	addi	x7,x6,15
 11c:	00f38413          	addi	x8,x7,15
 120:	00f40493          	addi	x9,x8,15
 124:	00f48513          	addi	x10,x9,15
 128:	00f50593          	addi	x11,x10,15
 12c:	00f58613          	addi	x12,x11,15
 130:	00f60693          	addi	x13,x12,15
 134:	00f68713          	addi	x14,x13,15
 138:	00f70793          	addi	x15,x14,15
 13c:	00f78813          	addi	x16,x15,15
 140:	00f80893          	addi	x17,x16,15
 144:	00f88913          	addi	x18,x17,15
 148:	00f90993          	addi	x19,x18,15
 14c:	00f98a13          	addi	x20,x19,15
 150:	00fa0a93          	addi	x21,x20,15
 154:	00fa8b13          	addi	x22,x21,15
 158:	00fb0b93          	addi	x23,x22,15
 15c:	00fb8c13          	addi	x24,x23,15
 160:	00fc0c93          	addi	x25,x24,15
 164:	00fc8d13          	addi	x26,x25,15
 168:	00fd0d93          	addi	x27,x26,15
 16c:	00fd8e13          	addi	x28,x27,15
 170:	00fe0e93          	addi	x29,x28,15
 174:	00fe8f13          	addi	x30,x29,15
 178:	00ff0f93          	addi	x31,x30,15
 17c:	00002623          	sw	x0,12(x0) # c <__TEST_START__+0xc>
 180:	00102823          	sw	x1,16(x0) # 10 <__TEST_START__+0x10>
 184:	00202a23          	sw	x2,20(x0) # 14 <__TEST_START__+0x14>
 188:	00302c23          	sw	x3,24(x0) # 18 <__TEST_START__+0x18>
 18c:	00402e23          	sw	x4,28(x0) # 1c <__TEST_START__+0x1c>
 190:	02502023          	sw	x5,32(x0) # 20 <__TEST_START__+0x20>
 194:	02602223          	sw	x6,36(x0) # 24 <__TEST_START__+0x24>
 198:	02702423          	sw	x7,40(x0) # 28 <__TEST_START__+0x28>
 19c:	02802623          	sw	x8,44(x0) # 2c <__TEST_START__+0x2c>
 1a0:	02902823          	sw	x9,48(x0) # 30 <__TEST_START__+0x30>
 1a4:	02a02a23          	sw	x10,52(x0) # 34 <__TEST_START__+0x34>
 1a8:	02b02c23          	sw	x11,56(x0) # 38 <__TEST_START__+0x38>
 1ac:	02c02e23          	sw	x12,60(x0) # 3c <__TEST_START__+0x3c>
 1b0:	04d02023          	sw	x13,64(x0) # 40 <__TEST_START__+0x40>
 1b4:	04e02223          	sw	x14,68(x0) # 44 <__TEST_START__+0x44>
 1b8:	04f02423          	sw	x15,72(x0) # 48 <__TEST_START__+0x48>
 1bc:	05002623          	sw	x16,76(x0) # 4c <__TEST_START__+0x4c>
 1c0:	05102823          	sw	x17,80(x0) # 50 <__TEST_START__+0x50>
 1c4:	05202a23          	sw	x18,84(x0) # 54 <__TEST_START__+0x54>
 1c8:	05302c23          	sw	x19,88(x0) # 58 <__TEST_START__+0x58>
 1cc:	05402e23          	sw	x20,92(x0) # 5c <__TEST_START__+0x5c>
 1d0:	07502023          	sw	x21,96(x0) # 60 <__TEST_START__+0x60>
 1d4:	07602223          	sw	x22,100(x0) # 64 <__TEST_START__+0x64>
 1d8:	07702423          	sw	x23,104(x0) # 68 <__TEST_START__+0x68>
 1dc:	07802623          	sw	x24,108(x0) # 6c <__TEST_START__+0x6c>
 1e0:	07902823          	sw	x25,112(x0) # 70 <__TEST_START__+0x70>
 1e4:	07a02a23          	sw	x26,116(x0) # 74 <__TEST_START__+0x74>
 1e8:	07b02c23          	sw	x27,120(x0) # 78 <__TEST_START__+0x78>
 1ec:	07c02e23          	sw	x28,124(x0) # 7c <__TEST_START__+0x7c>
 1f0:	09d02023          	sw	x29,128(x0) # 80 <__TEST_START__+0x80>
 1f4:	09e02223          	sw	x30,132(x0) # 84 <__TEST_START__+0x84>
 1f8:	09f02423          	sw	x31,136(x0) # 88 <__TEST_START__+0x88>
 1fc:	00002023          	sw	x0,0(x0) # 0 <__TEST_START__>
 200:	00002223          	sw	x0,4(x0) # 4 <__TEST_START__+0x4>

00000204 <test_case_bne>:
 204:	00102423          	sw	x1,8(x0) # 8 <__TEST_START__+0x8>
 208:	00402083          	lw	x1,4(x0) # 4 <__TEST_START__+0x4>
 20c:	00108093          	addi	x1,x1,1
 210:	00102223          	sw	x1,4(x0) # 4 <__TEST_START__+0x4>
 214:	00802083          	lw	x1,8(x0) # 8 <__TEST_START__+0x8>
 218:	00000093          	addi	x1,x0,0
 21c:	00000113          	addi	x2,x0,0
 220:	00000193          	addi	x3,x0,0
 224:	00000213          	addi	x4,x0,0
 228:	00000293          	addi	x5,x0,0
 22c:	00000313          	addi	x6,x0,0
 230:	00000393          	addi	x7,x0,0
 234:	00000413          	addi	x8,x0,0
 238:	00000493          	addi	x9,x0,0
 23c:	00000513          	addi	x10,x0,0
 240:	00000593          	addi	x11,x0,0
 244:	00000613          	addi	x12,x0,0
 248:	00000693          	addi	x13,x0,0
 24c:	00000713          	addi	x14,x0,0
 250:	00000793          	addi	x15,x0,0
 254:	00000813          	addi	x16,x0,0
 258:	00000893          	addi	x17,x0,0
 25c:	00000913          	addi	x18,x0,0
 260:	00000993          	addi	x19,x0,0
 264:	00000a13          	addi	x20,x0,0
 268:	00000a93          	addi	x21,x0,0
 26c:	00000b13          	addi	x22,x0,0
 270:	00000b93          	addi	x23,x0,0
 274:	00000c13          	addi	x24,x0,0
 278:	00000c93          	addi	x25,x0,0
 27c:	00000d13          	addi	x26,x0,0
 280:	00000d93          	addi	x27,x0,0
 284:	00000e13          	addi	x28,x0,0
 288:	00000e93          	addi	x29,x0,0
 28c:	00000f13          	addi	x30,x0,0
 290:	00000f93          	addi	x31,x0,0
 294:	5a009263          	bne	x1,x0,838 <test_fail>
 298:	5a111063          	bne	x2,x1,838 <test_fail>
 29c:	58219e63          	bne	x3,x2,838 <test_fail>
 2a0:	58321c63          	bne	x4,x3,838 <test_fail>
 2a4:	58429a63          	bne	x5,x4,838 <test_fail>
 2a8:	58531863          	bne	x6,x5,838 <test_fail>
 2ac:	58639663          	bne	x7,x6,838 <test_fail>
 2b0:	58741463          	bne	x8,x7,838 <test_fail>
 2b4:	58849263          	bne	x9,x8,838 <test_fail>
 2b8:	58951063          	bne	x10,x9,838 <test_fail>
 2bc:	56a59e63          	bne	x11,x10,838 <test_fail>
 2c0:	56b61c63          	bne	x12,x11,838 <test_fail>
 2c4:	56c69a63          	bne	x13,x12,838 <test_fail>
 2c8:	56d71863          	bne	x14,x13,838 <test_fail>
 2cc:	56e79663          	bne	x15,x14,838 <test_fail>
 2d0:	56f81463          	bne	x16,x15,838 <test_fail>
 2d4:	57089263          	bne	x17,x16,838 <test_fail>
 2d8:	57191063          	bne	x18,x17,838 <test_fail>
 2dc:	55299e63          	bne	x19,x18,838 <test_fail>
 2e0:	553a1c63          	bne	x20,x19,838 <test_fail>
 2e4:	554a9a63          	bne	x21,x20,838 <test_fail>
 2e8:	555b1863          	bne	x22,x21,838 <test_fail>
 2ec:	556b9663          	bne	x23,x22,838 <test_fail>
 2f0:	557c1463          	bne	x24,x23,838 <test_fail>
 2f4:	558c9263          	bne	x25,x24,838 <test_fail>
 2f8:	559d1063          	bne	x26,x25,838 <test_fail>
 2fc:	53ad9e63          	bne	x27,x26,838 <test_fail>
 300:	53be1c63          	bne	x28,x27,838 <test_fail>
 304:	53ce9a63          	bne	x29,x28,838 <test_fail>
 308:	53df1863          	bne	x30,x29,838 <test_fail>
 30c:	53ef9663          	bne	x31,x30,838 <test_fail>

00000310 <test_case_addi>:
 310:	03000093          	addi	x1,x0,48
 314:	03008113          	addi	x2,x1,48
 318:	03010193          	addi	x3,x2,48
 31c:	03018213          	addi	x4,x3,48
 320:	03020293          	addi	x5,x4,48 # 30 <__TEST_START__+0x30>
 324:	03028313          	addi	x6,x5,48
 328:	03030393          	addi	x7,x6,48
 32c:	03038413          	addi	x8,x7,48
 330:	03040493          	addi	x9,x8,48
 334:	03048513          	addi	x10,x9,48
 338:	03050593          	addi	x11,x10,48
 33c:	03058613          	addi	x12,x11,48
 340:	03060693          	addi	x13,x12,48
 344:	03068713          	addi	x14,x13,48
 348:	03070793          	addi	x15,x14,48
 34c:	03078813          	addi	x16,x15,48
 350:	03080893          	addi	x17,x16,48
 354:	03088913          	addi	x18,x17,48
 358:	03090993          	addi	x19,x18,48
 35c:	03098a13          	addi	x20,x19,48
 360:	030a0a93          	addi	x21,x20,48
 364:	030a8b13          	addi	x22,x21,48
 368:	030b0b93          	addi	x23,x22,48
 36c:	030b8c13          	addi	x24,x23,48
 370:	030c0c93          	addi	x25,x24,48
 374:	030c8d13          	addi	x26,x25,48
 378:	030d0d93          	addi	x27,x26,48
 37c:	030d8e13          	addi	x28,x27,48
 380:	030e0e93          	addi	x29,x28,48
 384:	030e8f13          	addi	x30,x29,48
 388:	030f0f93          	addi	x31,x30,48
 38c:	00102423          	sw	x1,8(x0) # 8 <__TEST_START__+0x8>
 390:	00402083          	lw	x1,4(x0) # 4 <__TEST_START__+0x4>
 394:	00108093          	addi	x1,x1,1
 398:	00102223          	sw	x1,4(x0) # 4 <__TEST_START__+0x4>
 39c:	00802083          	lw	x1,8(x0) # 8 <__TEST_START__+0x8>
 3a0:	5d000e93          	addi	x29,x0,1488
 3a4:	49fe9a63          	bne	x29,x31,838 <test_fail>
 3a8:	ff100093          	addi	x1,x0,-15
 3ac:	ff108113          	addi	x2,x1,-15
 3b0:	ff110193          	addi	x3,x2,-15
 3b4:	ff118213          	addi	x4,x3,-15
 3b8:	ff120293          	addi	x5,x4,-15 # fffffff1 <_stack_start+0xfffdfef1>
 3bc:	ff128313          	addi	x6,x5,-15
 3c0:	ff130393          	addi	x7,x6,-15
 3c4:	ff138413          	addi	x8,x7,-15
 3c8:	ff140493          	addi	x9,x8,-15
 3cc:	ff148513          	addi	x10,x9,-15
 3d0:	ff150593          	addi	x11,x10,-15
 3d4:	ff158613          	addi	x12,x11,-15
 3d8:	ff160693          	addi	x13,x12,-15
 3dc:	ff168713          	addi	x14,x13,-15
 3e0:	ff170793          	addi	x15,x14,-15
 3e4:	ff178813          	addi	x16,x15,-15
 3e8:	ff180893          	addi	x17,x16,-15
 3ec:	ff188913          	addi	x18,x17,-15
 3f0:	ff190993          	addi	x19,x18,-15
 3f4:	ff198a13          	addi	x20,x19,-15
 3f8:	ff1a0a93          	addi	x21,x20,-15
 3fc:	ff1a8b13          	addi	x22,x21,-15
 400:	ff1b0b93          	addi	x23,x22,-15
 404:	ff1b8c13          	addi	x24,x23,-15
 408:	ff1c0c93          	addi	x25,x24,-15
 40c:	ff1c8d13          	addi	x26,x25,-15
 410:	ff1d0d93          	addi	x27,x26,-15
 414:	ff1d8e13          	addi	x28,x27,-15
 418:	ff1e0e93          	addi	x29,x28,-15
 41c:	ff1e8f13          	addi	x30,x29,-15
 420:	ff1f0f93          	addi	x31,x30,-15
 424:	00102423          	sw	x1,8(x0) # 8 <__TEST_START__+0x8>
 428:	00402083          	lw	x1,4(x0) # 4 <__TEST_START__+0x4>
 42c:	00108093          	addi	x1,x1,1
 430:	00102223          	sw	x1,4(x0) # 4 <__TEST_START__+0x4>
 434:	00802083          	lw	x1,8(x0) # 8 <__TEST_START__+0x8>
 438:	e2f00e93          	addi	x29,x0,-465
 43c:	3ffe9e63          	bne	x29,x31,838 <test_fail>
 440:	fd000093          	addi	x1,x0,-48
 444:	fd008113          	addi	x2,x1,-48
 448:	fd010193          	addi	x3,x2,-48
 44c:	fd018213          	addi	x4,x3,-48
 450:	fd020293          	addi	x5,x4,-48 # ffffffd0 <_stack_start+0xfffdfed0>
 454:	fd028313          	addi	x6,x5,-48
 458:	fd030393          	addi	x7,x6,-48
 45c:	fd038413          	addi	x8,x7,-48
 460:	fd040493          	addi	x9,x8,-48
 464:	fd048513          	addi	x10,x9,-48
 468:	fd050593          	addi	x11,x10,-48
 46c:	fd058613          	addi	x12,x11,-48
 470:	fd060693          	addi	x13,x12,-48
 474:	fd068713          	addi	x14,x13,-48
 478:	fd070793          	addi	x15,x14,-48
 47c:	fd078813          	addi	x16,x15,-48
 480:	fd080893          	addi	x17,x16,-48
 484:	fd088913          	addi	x18,x17,-48
 488:	fd090993          	addi	x19,x18,-48
 48c:	fd098a13          	addi	x20,x19,-48
 490:	fd0a0a93          	addi	x21,x20,-48
 494:	fd0a8b13          	addi	x22,x21,-48
 498:	fd0b0b93          	addi	x23,x22,-48
 49c:	fd0b8c13          	addi	x24,x23,-48
 4a0:	fd0c0c93          	addi	x25,x24,-48
 4a4:	fd0c8d13          	addi	x26,x25,-48
 4a8:	fd0d0d93          	addi	x27,x26,-48
 4ac:	fd0d8e13          	addi	x28,x27,-48
 4b0:	fd0e0e93          	addi	x29,x28,-48
 4b4:	fd0e8f13          	addi	x30,x29,-48
 4b8:	fd0f0f93          	addi	x31,x30,-48
 4bc:	00102423          	sw	x1,8(x0) # 8 <__TEST_START__+0x8>
 4c0:	00402083          	lw	x1,4(x0) # 4 <__TEST_START__+0x4>
 4c4:	00108093          	addi	x1,x1,1
 4c8:	00102223          	sw	x1,4(x0) # 4 <__TEST_START__+0x4>
 4cc:	00802083          	lw	x1,8(x0) # 8 <__TEST_START__+0x8>
 4d0:	a3000e93          	addi	x29,x0,-1488
 4d4:	37fe9263          	bne	x29,x31,838 <test_fail>
 4d8:	01400093          	addi	x1,x0,20
 4dc:	01508113          	addi	x2,x1,21
 4e0:	01610193          	addi	x3,x2,22
 4e4:	01718213          	addi	x4,x3,23
 4e8:	01820293          	addi	x5,x4,24 # 18 <__TEST_START__+0x18>
 4ec:	01928313          	addi	x6,x5,25
 4f0:	01a30393          	addi	x7,x6,26
 4f4:	01b38413          	addi	x8,x7,27
 4f8:	01c40493          	addi	x9,x8,28
 4fc:	7d048513          	addi	x10,x9,2000
 500:	01e50593          	addi	x11,x10,30
 504:	01f58613          	addi	x12,x11,31
 508:	02060693          	addi	x13,x12,32
 50c:	02168713          	addi	x14,x13,33
 510:	02270793          	addi	x15,x14,34
 514:	02378813          	addi	x16,x15,35
 518:	02480893          	addi	x17,x16,36
 51c:	02588913          	addi	x18,x17,37
 520:	02690993          	addi	x19,x18,38
 524:	02798a13          	addi	x20,x19,39
 528:	028a0a93          	addi	x21,x20,40
 52c:	029a8b13          	addi	x22,x21,41
 530:	02ab0b93          	addi	x23,x22,42
 534:	a24b8c13          	addi	x24,x23,-1500
 538:	02cc0c93          	addi	x25,x24,44
 53c:	02dc8d13          	addi	x26,x25,45
 540:	02ed0d93          	addi	x27,x26,46
 544:	02fd8e13          	addi	x28,x27,47
 548:	030e0e93          	addi	x29,x28,48
 54c:	031e8f13          	addi	x30,x29,49
 550:	032f0f93          	addi	x31,x30,50
 554:	00102423          	sw	x1,8(x0) # 8 <__TEST_START__+0x8>
 558:	00402083          	lw	x1,4(x0) # 4 <__TEST_START__+0x4>
 55c:	00108093          	addi	x1,x1,1
 560:	00102223          	sw	x1,4(x0) # 4 <__TEST_START__+0x4>
 564:	00802083          	lw	x1,8(x0) # 8 <__TEST_START__+0x8>
 568:	5e900e93          	addi	x29,x0,1513
 56c:	2dfe9663          	bne	x29,x31,838 <test_fail>
 570:	1f600093          	addi	x1,x0,502
 574:	e0808113          	addi	x2,x1,-504
 578:	1fa10193          	addi	x3,x2,506
 57c:	e0418213          	addi	x4,x3,-508
 580:	1fe20293          	addi	x5,x4,510 # 1fe <test_init+0xfe>
 584:	e0028313          	addi	x6,x5,-512
 588:	20230393          	addi	x7,x6,514
 58c:	b1e38413          	addi	x8,x7,-1250
 590:	4e440493          	addi	x9,x8,1252
 594:	b1a48513          	addi	x10,x9,-1254
 598:	4e850593          	addi	x11,x10,1256
 59c:	b1658613          	addi	x12,x11,-1258
 5a0:	4ec60693          	addi	x13,x12,1260
 5a4:	b1268713          	addi	x14,x13,-1262
 5a8:	4f070793          	addi	x15,x14,1264
 5ac:	82f78813          	addi	x16,x15,-2001
 5b0:	7d280893          	addi	x17,x16,2002
 5b4:	82d88913          	addi	x18,x17,-2003
 5b8:	7d490993          	addi	x19,x18,2004
 5bc:	82b98a13          	addi	x20,x19,-2005
 5c0:	7d6a0a93          	addi	x21,x20,2006
 5c4:	829a8b13          	addi	x22,x21,-2007
 5c8:	7d8b0b93          	addi	x23,x22,2008
 5cc:	000b8c13          	addi	x24,x23,0
 5d0:	008c0c93          	addi	x25,x24,8
 5d4:	ff0c8d13          	addi	x26,x25,-16
 5d8:	018d0d93          	addi	x27,x26,24
 5dc:	fe0d8e13          	addi	x28,x27,-32
 5e0:	028e0e93          	addi	x29,x28,40
 5e4:	fd0e8f13          	addi	x30,x29,-48
 5e8:	038f0f93          	addi	x31,x30,56
 5ec:	00102423          	sw	x1,8(x0) # 8 <__TEST_START__+0x8>
 5f0:	00402083          	lw	x1,4(x0) # 4 <__TEST_START__+0x4>
 5f4:	00108093          	addi	x1,x1,1
 5f8:	00102223          	sw	x1,4(x0) # 4 <__TEST_START__+0x4>
 5fc:	00802083          	lw	x1,8(x0) # 8 <__TEST_START__+0x8>
 600:	22800e93          	addi	x29,x0,552
 604:	23fe9a63          	bne	x29,x31,838 <test_fail>

00000608 <test_case_lui>:
 608:	00102423          	sw	x1,8(x0) # 8 <__TEST_START__+0x8>
 60c:	00402083          	lw	x1,4(x0) # 4 <__TEST_START__+0x4>
 610:	00108093          	addi	x1,x1,1
 614:	00102223          	sw	x1,4(x0) # 4 <__TEST_START__+0x4>
 618:	00802083          	lw	x1,8(x0) # 8 <__TEST_START__+0x8>
 61c:	00003037          	lui	x0,0x3
 620:	000060b7          	lui	x1,0x6
 624:	00009137          	lui	x2,0x9
 628:	0000c1b7          	lui	x3,0xc
 62c:	0000f237          	lui	x4,0xf
 630:	000122b7          	lui	x5,0x12
 634:	00015337          	lui	x6,0x15
 638:	000183b7          	lui	x7,0x18
 63c:	0001b437          	lui	x8,0x1b
 640:	0001e4b7          	lui	x9,0x1e
 644:	00021537          	lui	x10,0x21
 648:	000245b7          	lui	x11,0x24
 64c:	00027637          	lui	x12,0x27
 650:	00f2a6b7          	lui	x13,0xf2a
 654:	00e2d737          	lui	x14,0xe2d
 658:	00d307b7          	lui	x15,0xd30
 65c:	33c00837          	lui	x16,0x33c00
 660:	36b008b7          	lui	x17,0x36b00
 664:	39a00937          	lui	x18,0x39a00
 668:	3c0009b7          	lui	x19,0x3c000
 66c:	3f000a37          	lui	x20,0x3f000
 670:	42000ab7          	lui	x21,0x42000
 674:	45000b37          	lui	x22,0x45000
 678:	48000bb7          	lui	x23,0x48000
 67c:	4b000c37          	lui	x24,0x4b000
 680:	4e000cb7          	lui	x25,0x4e000
 684:	51000d37          	lui	x26,0x51000
 688:	54000db7          	lui	x27,0x54000
 68c:	57000e37          	lui	x28,0x57000
 690:	5a000eb7          	lui	x29,0x5a000
 694:	5d000f37          	lui	x30,0x5d000
 698:	60000fb7          	lui	x31,0x60000
 69c:	00002623          	sw	x0,12(x0) # c <__TEST_START__+0xc>
 6a0:	00102823          	sw	x1,16(x0) # 10 <__TEST_START__+0x10>
 6a4:	00202a23          	sw	x2,20(x0) # 14 <__TEST_START__+0x14>
 6a8:	00302c23          	sw	x3,24(x0) # 18 <__TEST_START__+0x18>
 6ac:	00402e23          	sw	x4,28(x0) # 1c <__TEST_START__+0x1c>
 6b0:	02502023          	sw	x5,32(x0) # 20 <__TEST_START__+0x20>
 6b4:	02602223          	sw	x6,36(x0) # 24 <__TEST_START__+0x24>
 6b8:	02702423          	sw	x7,40(x0) # 28 <__TEST_START__+0x28>
 6bc:	02802623          	sw	x8,44(x0) # 2c <__TEST_START__+0x2c>
 6c0:	02902823          	sw	x9,48(x0) # 30 <__TEST_START__+0x30>
 6c4:	02a02a23          	sw	x10,52(x0) # 34 <__TEST_START__+0x34>
 6c8:	02b02c23          	sw	x11,56(x0) # 38 <__TEST_START__+0x38>
 6cc:	02c02e23          	sw	x12,60(x0) # 3c <__TEST_START__+0x3c>
 6d0:	04d02023          	sw	x13,64(x0) # 40 <__TEST_START__+0x40>
 6d4:	04e02223          	sw	x14,68(x0) # 44 <__TEST_START__+0x44>
 6d8:	04f02423          	sw	x15,72(x0) # 48 <__TEST_START__+0x48>
 6dc:	05002623          	sw	x16,76(x0) # 4c <__TEST_START__+0x4c>
 6e0:	05102823          	sw	x17,80(x0) # 50 <__TEST_START__+0x50>
 6e4:	05202a23          	sw	x18,84(x0) # 54 <__TEST_START__+0x54>
 6e8:	05302c23          	sw	x19,88(x0) # 58 <__TEST_START__+0x58>
 6ec:	05402e23          	sw	x20,92(x0) # 5c <__TEST_START__+0x5c>
 6f0:	07502023          	sw	x21,96(x0) # 60 <__TEST_START__+0x60>
 6f4:	07602223          	sw	x22,100(x0) # 64 <__TEST_START__+0x64>
 6f8:	07702423          	sw	x23,104(x0) # 68 <__TEST_START__+0x68>
 6fc:	07802623          	sw	x24,108(x0) # 6c <__TEST_START__+0x6c>
 700:	07902823          	sw	x25,112(x0) # 70 <__TEST_START__+0x70>
 704:	07a02a23          	sw	x26,116(x0) # 74 <__TEST_START__+0x74>
 708:	07b02c23          	sw	x27,120(x0) # 78 <__TEST_START__+0x78>
 70c:	07c02e23          	sw	x28,124(x0) # 7c <__TEST_START__+0x7c>
 710:	09d02023          	sw	x29,128(x0) # 80 <__TEST_START__+0x80>
 714:	09e02223          	sw	x30,132(x0) # 84 <__TEST_START__+0x84>
 718:	09f02423          	sw	x31,136(x0) # 88 <__TEST_START__+0x88>

0000071c <test_case_beq>:
 71c:	00102423          	sw	x1,8(x0) # 8 <__TEST_START__+0x8>
 720:	00402083          	lw	x1,4(x0) # 4 <__TEST_START__+0x4>
 724:	00108093          	addi	x1,x1,1 # 6001 <loop_test_fail+0x57bd>
 728:	00102223          	sw	x1,4(x0) # 4 <__TEST_START__+0x4>
 72c:	00802083          	lw	x1,8(x0) # 8 <__TEST_START__+0x8>
 730:	00100093          	addi	x1,x0,1
 734:	00800113          	addi	x2,x0,8
 738:	00f00193          	addi	x3,x0,15
 73c:	01600213          	addi	x4,x0,22
 740:	01d00293          	addi	x5,x0,29
 744:	02400313          	addi	x6,x0,36
 748:	02b00393          	addi	x7,x0,43
 74c:	03200413          	addi	x8,x0,50
 750:	03900493          	addi	x9,x0,57
 754:	04000513          	addi	x10,x0,64
 758:	04700593          	addi	x11,x0,71
 75c:	04e00613          	addi	x12,x0,78
 760:	05500693          	addi	x13,x0,85
 764:	05c00713          	addi	x14,x0,92
 768:	06300793          	addi	x15,x0,99
 76c:	fff00813          	addi	x16,x0,-1
 770:	ff800893          	addi	x17,x0,-8
 774:	ff100913          	addi	x18,x0,-15
 778:	fea00993          	addi	x19,x0,-22
 77c:	fe300a13          	addi	x20,x0,-29
 780:	fdc00a93          	addi	x21,x0,-36
 784:	fd500b13          	addi	x22,x0,-43
 788:	fce00b93          	addi	x23,x0,-50
 78c:	fc700c13          	addi	x24,x0,-57
 790:	fc000c93          	addi	x25,x0,-64
 794:	fb900d13          	addi	x26,x0,-71
 798:	fb200d93          	addi	x27,x0,-78
 79c:	fab00e13          	addi	x28,x0,-85
 7a0:	fa400e93          	addi	x29,x0,-92
 7a4:	f9d00f13          	addi	x30,x0,-99
 7a8:	f9600f93          	addi	x31,x0,-106
 7ac:	08008663          	beq	x1,x0,838 <test_fail>
 7b0:	08110463          	beq	x2,x1,838 <test_fail>
 7b4:	08218263          	beq	x3,x2,838 <test_fail>
 7b8:	08320063          	beq	x4,x3,838 <test_fail>
 7bc:	06428e63          	beq	x5,x4,838 <test_fail>
 7c0:	06530c63          	beq	x6,x5,838 <test_fail>
 7c4:	06638a63          	beq	x7,x6,838 <test_fail>
 7c8:	06740863          	beq	x8,x7,838 <test_fail>
 7cc:	06848663          	beq	x9,x8,838 <test_fail>
 7d0:	06950463          	beq	x10,x9,838 <test_fail>
 7d4:	06a58263          	beq	x11,x10,838 <test_fail>
 7d8:	06b60063          	beq	x12,x11,838 <test_fail>
 7dc:	04c68e63          	beq	x13,x12,838 <test_fail>
 7e0:	04d70c63          	beq	x14,x13,838 <test_fail>
 7e4:	04e78a63          	beq	x15,x14,838 <test_fail>
 7e8:	04f80863          	beq	x16,x15,838 <test_fail>
 7ec:	05088663          	beq	x17,x16,838 <test_fail>
 7f0:	05190463          	beq	x18,x17,838 <test_fail>
 7f4:	05298263          	beq	x19,x18,838 <test_fail>
 7f8:	053a0063          	beq	x20,x19,838 <test_fail>
 7fc:	034a8e63          	beq	x21,x20,838 <test_fail>
 800:	035b0c63          	beq	x22,x21,838 <test_fail>
 804:	036b8a63          	beq	x23,x22,838 <test_fail>
 808:	037c0863          	beq	x24,x23,838 <test_fail>
 80c:	038c8663          	beq	x25,x24,838 <test_fail>
 810:	039d0463          	beq	x26,x25,838 <test_fail>
 814:	03ad8263          	beq	x27,x26,838 <test_fail>
 818:	03be0063          	beq	x28,x27,838 <test_fail>
 81c:	01ce8e63          	beq	x29,x28,838 <test_fail>
 820:	01df0c63          	beq	x30,x29,838 <test_fail>
 824:	01ef8a63          	beq	x31,x30,838 <test_fail>

00000828 <test_pass>:
 828:	504150b7          	lui	x1,0x50415
 82c:	35308093          	addi	x1,x1,851 # 50415353 <_stack_start+0x503f5253>
 830:	00102023          	sw	x1,0(x0) # 0 <__TEST_START__>

00000834 <loop_test_pass>:
 834:	000f9063          	bne	x31,x0,834 <loop_test_pass>

00000838 <test_fail>:
 838:	464150b7          	lui	x1,0x46415
 83c:	94c08093          	addi	x1,x1,-1716 # 4641494c <_stack_start+0x463f484c>
 840:	00102023          	sw	x1,0(x0) # 0 <__TEST_START__>

00000844 <loop_test_fail>:
 844:	000f9063          	bne	x31,x0,844 <loop_test_fail>
